{
    "$schema": "https://schema.management.azure.com/schemas/2015-01-01/deploymentParameters.json#",
    "contentVersion": "1.0.0.0",
    "parameters": {
        "newStorageAccountName": {
    },
    "storageAccountType": {"value": "Standard_LRS"
    },
    "virtualNetworkName": {"value": "adVNET"
    },
    "virtualNetworkAddressRange": {"value": "10.0.0.0/16"
    },
    "adSubnetName": {"value": "adSubnet"
    },
    "adSubnet": {"value": "10.0.0.0/24"
    },
    "adPDCNicName": {"value": "adPDCNic"
    },
    "adPDCNicIPAddress": {"value": "10.0.0.4"
    },
    "adBDCNicName": {"value": "adBDCNic"
    },
    "adBDCNicIPAddress": {"value": "10.0.0.5"
    },
    "publicIPAddressName": {"value": "adpublicIP"
    },
    "publicIPAddressType": {"value": "Dynamic"
    },
    "adPDCVMName": {"value": "adPDC"
    },
    "adBDCVMName": {"value": "adBDC"
    },
    "adminUsername": {"value": "adAdministrator"
    },
    "adminPassword": {"type": "securestring"
    },
    "adVMSize": {"value": "Standard_D2"
    },
    "imagePublisher": {"value": "MicrosoftWindowsServer"
    },
    "imageOffer": {"value": "WindowsServer"
    },
    "imageSKU": {"value": "2012-R2-Datacenter"
    },
    "adAvailabilitySetName": {"value": "adAvailabiltySet"
    },
    "domainName": {
    },
    "dnsPrefix": {
    },
    "pdcRDPPort": {"value": 3389
    },
    "bdcRDPPort": {"value": 13389
    },
    "assetLocation": {"value": "https://bitbucket.org/airdocs/vnetwithadservers/raw/master/"
    }
    }
}